<?xml version="1.0" encoding="utf-8"?>
<svg version="1.1" id="Layer_1" xmlns="http://www.w3.org/2000/svg" xmlns:xlink="http://www.w3.org/1999/xlink" x="0px" y="0px"
	 viewBox="0 0 16.6 16.6" style="enable-background:new 0 0 16.6 16.6;" xml:space="preserve">
<style type="text/css">
	.st0{fill:#fff;}
</style>
<path class="st0" d="M8.3,15.1c-2,0-3.8-1.1-4.9-2.6c0-1.6,3.2-2.5,4.9-2.5s4.9,0.9,4.9,2.5C12.1,14.1,10.3,15.1,8.3,15.1 M8.3,3.4
	c1.4,0,2.4,1.1,2.4,2.4S9.7,8.3,8.3,8.3S5.9,7.2,5.9,5.9S7,3.4,8.3,3.4"/>
</svg>
