<svg xmlns="http://www.w3.org/2000/svg" xml:space="preserve" x="0" y="0" version="1.1" viewBox="0 0 16.6 16.6">
  <path d="M8.3 15.1c-2 0-3.8-1.1-4.9-2.6 0-1.6 3.2-2.5 4.9-2.5s4.9.9 4.9 2.5a5.93 5.93 0 0 1-4.9 2.6m0-11.7c1.4 0 2.4 1.1 2.4 2.4s-1 2.5-2.4 2.5-2.4-1.1-2.4-2.4S7 3.4 8.3 3.4" fill="#333" stroke="#333" stroke-miterlimit="10" stroke-width=".1"/>
</svg>
